Advanced Data Analysis - Project 2 – Sean Vieau Portfolio
…
11 and 15 are flagging as outliers again. Let’s remove them.

# Remove outlier patients
data_MENT_outliers <- data_MENT_main %>%
  filter(!newid %in% c(11, 15, 319, 356))

data_MENT_outliers %>% arrange(AGG_MENT_CHANGE)

# A tibble: 528 × 4
   newid AGG_MENT_CHANGE hard_drugs_grp ADH_HIGHVSLOW 
   <dbl>           <dbl> <fct>          <fct>         
 1   115           -38.2 Never User     Low Adherence 
 2   421           -33.4 Never User     High Adherence
 3    27           -31.1 Previous User  High Adherence
 4   140           -30.2 Never User     Low Adherence 
 5   526           -27.6 Never User     High Adherence
 6   486           -27.6 Previous User  High Adherence
 7   529           -26.9 Previous User  High Adherence
 8   483           -26.4 Never User     High Adherence
 9   294           -26.2 Previous User  High Adherence
10    43           -26.0 Previous User  High Adherence
# ℹ 518 more rows
…
