Predictive Modelling – Sean Vieau Portfolio
…
Interesting, it looks like these patients also have high values for certain MRI image features, such as GLCM 1 and 2. Additionally, they do not have the highest visit 2 kidney volumes, they simply increases in size the most.

Summary

While patients 37 and 51 are potential outliers on kidvol_change, these are NOT erroneous values. On the contrary, they are backed up by similar high values on other measurements such as glcm2, but are not universally high on all MRI image features. In other words, these appear to be very realistic values.

In summary, all values are derived from authentic biological data and we are motivated to retain them in the analysis.

Bivariate Comparisons

data |> 
  arrange(desc(lbp5))

# A tibble: 71 × 24
   Subject_ID  geom1  geom2   gabor1   gabor2     gabor3   gabor4  gabor5  glcm1
        <dbl>  <dbl>  <dbl>    <dbl>    <dbl>      <dbl>    <dbl>   <dbl>  <dbl>
 1         48 -124.  15442. -0.163    0.00177 -0.000288   2.66e-2 3.12e-6 2545. 
 2         29   99.0  9804. -0.0967  -0.135    0.0130     9.36e-3 1.82e-2 -836. 
 3         49  -27.1   734.  0.00606 -0.00916 -0.0000555  3.67e-5 8.39e-5   20.0
 4         52   77.1  5937.  0.460    0.156    0.0716     2.11e-1 2.42e-2 -638. 
 5         50   33.4  1113. -0.127   -0.0813   0.0103     1.61e-2 6.61e-3 1063. 
 6          9  -24.2   586. -0.0844  -0.0581   0.00490    7.12e-3 3.38e-3 -693. 
 7          8   41.8  1744. -0.434    0.00612 -0.00266    1.88e-1 3.75e-5 -416. 
 8         30  -33.0  1090.  0.0263   0.0911   0.00240    6.94e-4 8.31e-3  511. 
 9         66  -53.2  2833.  0.0763   0.152    0.0116     5.83e-3 2.32e-2 -996. 
10         46  -39.6  1571.  0.0571   0.162    0.00925    3.26e-3 2.62e-2 -192. 
# ℹ 61 more rows
# ℹ 15 more variables: glcm2 <dbl>, txti1 <dbl>, txti2 <dbl>, txti3 <dbl>,
#   txti4 <dbl>, txti5 <dbl>, lbp1 <dbl>, lbp2 <dbl>, lbp3 <dbl>, lbp4 <dbl>,
#   lbp5 <dbl>, kidvol_base <dbl>, kidvol_visit2 <dbl>, progression <fct>,
#   kidvol_change <dbl>
…
These are either logarithmic, or that one participant is an incredible outlier.

Let’s try removing them and see what the plots look like.

# Sort by lbp5
data |> 
  arrange(desc(lbp5))

# A tibble: 71 × 24
   Subject_ID  geom1  geom2   gabor1   gabor2     gabor3   gabor4  gabor5  glcm1
        <dbl>  <dbl>  <dbl>    <dbl>    <dbl>      <dbl>    <dbl>   <dbl>  <dbl>
 1         48 -124.  15442. -0.163    0.00177 -0.000288   2.66e-2 3.12e-6 2545. 
 2         29   99.0  9804. -0.0967  -0.135    0.0130     9.36e-3 1.82e-2 -836. 
 3         49  -27.1   734.  0.00606 -0.00916 -0.0000555  3.67e-5 8.39e-5   20.0
 4         52   77.1  5937.  0.460    0.156    0.0716     2.11e-1 2.42e-2 -638. 
 5         50   33.4  1113. -0.127   -0.0813   0.0103     1.61e-2 6.61e-3 1063. 
 6          9  -24.2   586. -0.0844  -0.0581   0.00490    7.12e-3 3.38e-3 -693. 
 7          8   41.8  1744. -0.434    0.00612 -0.00266    1.88e-1 3.75e-5 -416. 
 8         30  -33.0  1090.  0.0263   0.0911   0.00240    6.94e-4 8.31e-3  511. 
 9         66  -53.2  2833.  0.0763   0.152    0.0116     5.83e-3 2.32e-2 -996. 
10         46  -39.6  1571.  0.0571   0.162    0.00925    3.26e-3 2.62e-2 -192. 
# ℹ 61 more rows
# ℹ 15 more variables: glcm2 <dbl>, txti1 <dbl>, txti2 <dbl>, txti3 <dbl>,
#   txti4 <dbl>, txti5 <dbl>, lbp1 <dbl>, lbp2 <dbl>, lbp3 <dbl>, lbp4 <dbl>,
#   lbp5 <dbl>, kidvol_base <dbl>, kidvol_visit2 <dbl>, progression <fct>,
#   kidvol_change <dbl>
…
Okay, we assumed they were the same patient but their not.

data_filter |> 
  arrange(desc(lbp3))

# A tibble: 70 × 24
   Subject_ID geom1  geom2   gabor1 gabor2   gabor3  gabor4 gabor5  glcm1  glcm2
        <dbl> <dbl>  <dbl>    <dbl>  <dbl>    <dbl>   <dbl>  <dbl>  <dbl>  <dbl>
 1         52  77.1  5937.  0.460    0.156  7.16e-2 2.11e-1 0.0242  -638. 4.08e5
 2         14 173.  29933. -0.0462  -0.175  8.10e-3 2.13e-3 0.0307   534. 2.85e5
 3         61 181.  32687. -0.0243  -0.167  4.07e-3 5.92e-4 0.0279   858. 7.36e5
 4         28 115.  13289.  0.118   -0.162 -1.91e-2 1.39e-2 0.0261   928. 8.62e5
 5         40  85.1  7244. -0.0852  -0.166  1.42e-2 7.26e-3 0.0276  1792. 3.21e6
 6          7 -59.5  3540.  0.103    0.177  1.82e-2 1.05e-2 0.0313 -1361. 1.85e6
 7          2  54.0  2919. -0.0500  -0.127  6.33e-3 2.50e-3 0.0160  -581. 3.37e5
 8         24  37.8  1426.  0.132   -0.206 -2.73e-2 1.75e-2 0.0424   328. 1.08e5
 9         29  99.0  9804. -0.0967  -0.135  1.30e-2 9.36e-3 0.0182  -836. 6.99e5
10         33  32.5  1058. -0.00752 -0.106  7.96e-4 5.66e-5 0.0112   783. 6.13e5
# ℹ 60 more rows
# ℹ 14 more variables: txti1 <dbl>, txti2 <dbl>, txti3 <dbl>, txti4 <dbl>,
#   txti5 <dbl>, lbp1 <dbl>, lbp2 <dbl>, lbp3 <dbl>, lbp4 <dbl>, lbp5 <dbl>,
#   kidvol_base <dbl>, kidvol_visit2 <dbl>, progression <fct>,
#   kidvol_change <dbl>
…
